<?xml version="1.0" encoding="UTF-8" standalone="no"?>
<!-- Created with Inkscape (http://www.inkscape.org/) -->

<svg
   width="300mm"
   height="300mm"
   viewBox="0 0 300 300"
   version="1.1"
   id="svg5"
   inkscape:version="1.2 (dc2aedaf03, 2022-05-15)"
   sodipodi:docname="Chp_Path_UpsideDown.svg"
   inkscape:export-filename="Arrow&amp;Ball.png"
   inkscape:export-xdpi="96"
   inkscape:export-ydpi="96"
   xmlns:inkscape="http://www.inkscape.org/namespaces/inkscape"
   xmlns:sodipodi="http://sodipodi.sourceforge.net/DTD/sodipodi-0.dtd"
   xmlns="http://www.w3.org/2000/svg"
   xmlns:svg="http://www.w3.org/2000/svg">
  <sodipodi:namedview
     id="namedview7"
     pagecolor="#505050"
     bordercolor="#eeeeee"
     borderopacity="1"
     inkscape:showpageshadow="0"
     inkscape:pageopacity="0"
     inkscape:pagecheckerboard="0"
     inkscape:deskcolor="#505050"
     inkscape:document-units="mm"
     showgrid="false"
     inkscape:zoom="0.55244701"
     inkscape:cx="466.10805"
     inkscape:cy="570.19043"
     inkscape:window-width="1920"
     inkscape:window-height="1057"
     inkscape:window-x="-8"
     inkscape:window-y="1063"
     inkscape:window-maximized="1"
     inkscape:current-layer="layer1" />
  <defs
     id="defs2">
    <inkscape:path-effect
       effect="powerstroke"
       id="path-effect24057"
       is_visible="true"
       lpeversion="1"
       offset_points="1.4755632,37.366725 | 0.68672444,41.196219 | 2,19.660823"
       not_jump="false"
       sort_points="true"
       interpolator_type="CentripetalCatmullRom"
       interpolator_beta="0.2"
       start_linecap_type="zerowidth"
       linejoin_type="round"
       miter_limit="4"
       scale_width="1"
       end_linecap_type="zerowidth" />
    <inkscape:path-effect
       effect="powerstroke"
       id="path-effect263"
       is_visible="true"
       lpeversion="1"
       offset_points="0.15776431,21.216178 | 2.5032984,25.890506 | 4.8271858,14.68631"
       not_jump="false"
       sort_points="true"
       interpolator_type="CentripetalCatmullRom"
       interpolator_beta="0.2"
       start_linecap_type="zerowidth"
       linejoin_type="round"
       miter_limit="4"
       scale_width="1"
       end_linecap_type="zerowidth" />
    <inkscape:path-effect
       effect="powerstroke"
       id="path-effect24057-0"
       is_visible="true"
       lpeversion="1"
       offset_points="1.4755632,37.366725 | 0.68672444,41.196219 | 2,19.660823"
       not_jump="false"
       sort_points="true"
       interpolator_type="CentripetalCatmullRom"
       interpolator_beta="0.2"
       start_linecap_type="zerowidth"
       linejoin_type="round"
       miter_limit="4"
       scale_width="1"
       end_linecap_type="zerowidth" />
    <inkscape:path-effect
       effect="powerstroke"
       id="path-effect24057-0-4"
       is_visible="true"
       lpeversion="1"
       offset_points="1.4755632,37.366725 | 0.68672444,41.196219 | 2,19.660823"
       not_jump="false"
       sort_points="true"
       interpolator_type="CentripetalCatmullRom"
       interpolator_beta="0.2"
       start_linecap_type="zerowidth"
       linejoin_type="round"
       miter_limit="4"
       scale_width="1"
       end_linecap_type="zerowidth" />
    <inkscape:path-effect
       effect="powerstroke"
       id="path-effect24057-0-4-1"
       is_visible="true"
       lpeversion="1"
       offset_points="1.4755632,37.366725 | 0.68672444,41.196219 | 2,19.660823"
       not_jump="false"
       sort_points="true"
       interpolator_type="CentripetalCatmullRom"
       interpolator_beta="0.2"
       start_linecap_type="zerowidth"
       linejoin_type="round"
       miter_limit="4"
       scale_width="1"
       end_linecap_type="zerowidth" />
  </defs>
  <g
     inkscape:label="Layer 1"
     inkscape:groupmode="layer"
     id="layer1">
    <path
       id="path24055-3-6-3"
       style="fill:#000000;stroke-width:40.823;stroke-linecap:round;stroke-linejoin:round"
       d="m 292.65527,266.82888 c -0.86075,2.45607 -3.75905,7.59443 -11.40331,10.82889 -7.77068,3.28795 -19.87136,4.31432 -35.06817,-0.50669 -9.53705,-3.02553 -19.51937,-8.15562 -28.80771,-15.27239 -15.52178,-11.89286 -32.37481,-30.57725 -49.26475,-56.60211 -18.09361,-27.65049 -27.50496,-54.50887 -31.11803,-78.91349 -3.47769,-23.4902 -1.43186,-43.547614 2.0958,-59.074464 0.40571,-1.78568 0.83879,-3.56055 1.30008,-5.32401 4.56295,-17.44377 11.30821,-31.42274 17.92416,-40.61512 4.59384,-6.38281 8.63817,-9.8016 11.79427,-11.01087 3.19617,-1.2246196 5.59657,-0.30551 8.12477,1.31522 1.69067,1.08383 6.02292,4.37731 8.55729,6.27089 3.22632,2.41058 5.7963,4.30918 7.2688,5.39456 1.31884,0.97212 4.18353,3.11437 7.23274,5.44304 3.38597,2.58586 5.97728,4.54533 8.59336,6.22241 2.54321,1.63035 4.66456,2.79257 5.77175,4.78997 1.14265,2.06136 1.15384,4.81383 0.50467,9.39412 -0.96995,6.84356 -2.80317,14.8816 -3.0449,25.43188 -0.0235,1.02682 -0.0304,2.0535 -0.0195,3.07951 0.0943,8.88429 1.30144,19.81627 5.05805,32.347964 3.85155,12.84841 10.67028,28.38291 23.07452,46.30315 14.45476,20.80424 26.43927,35.62412 34.51047,47.39056 4.78982,6.98274 8.70298,14.19696 11.60291,20.83914 4.63099,10.60708 6.68219,19.67034 7.08753,27.09016 0.40421,7.39892 -0.87088,12.59848 -1.77478,15.17768 z M 147.676,294.69274 c -2.07289,1.57348 -7.32238,4.24396 -15.55929,2.70267 -8.37138,-1.56646 -19.19945,-7.40475 -29.62694,-19.84118 -6.546452,-7.80769 -12.394662,-17.63926 -16.638162,-28.78508 -7.09138,-18.62594 -11.87324,-43.81941 -12.98702,-75.2998 -1.30252,-33.35172 4.25307,-61.28146 13.58638,-84.027914 8.9975,-21.92803 21.005792,-37.86687 32.071992,-49.13967 1.26977,-1.29348 2.55806,-2.56181 3.86526,-3.80398 12.94028,-12.29662 25.98173,-20.31456 36.4292,-24.3472 7.24562,-2.7967596 12.48013,-3.3954396 15.76924,-2.6509696 3.33523,0.7548996 4.84691,2.8521296 6.05564,5.6086796 0.83438,1.90282 2.53901,6.92601 3.60376,9.97807 1.36696,3.91834 2.35632,6.6979 3.0132,8.53581 0.55141,1.54282 1.73145,4.9198 2.95874,8.55498 1.34557,3.98549 2.43168,7.16174 3.65822,9.9589 1.21636,2.77394 2.37227,4.90922 2.32021,7.12846 -0.0538,2.29147 -1.34378,4.48324 -4.04809,7.76262 -4.04101,4.90034 -9.33967,10.24155 -14.56749,18.48771 -0.50887,0.80267 -1.00445,1.61486 -1.4855,2.43677 -4.14279,7.07826 -8.46273,16.541164 -11.52546,28.908194 -3.15093,12.72319 -5.27635,29.69991 -3.82094,52.26664 1.72331,25.97791 4.38507,45.67554 5.27011,60.62447 0.52492,8.86634 0.18097,17.50617 -0.74649,25.05187 -1.48466,12.07895 -4.40546,21.22166 -7.96962,27.91136 -3.54768,6.65878 -7.44852,10.325 -9.62695,11.97859 z M 48.838458,276.52959 c -2.47695,0.81582 -8.19,1.69233 -15.60842,-2.5167 -7.42263,-4.21143 -15.80038,-13.26379 -21.68878,-28.42139 -3.6963301,-9.51487 -6.0857198,-20.71628 -6.5352598,-32.63812 -0.75106,-19.91811 2.7836797,-45.29227 11.8047798,-75.35649 9.45033,-31.92246 23.6842,-56.448274 39.90924,-74.801574 15.64407,-17.69611 32.23063,-28.65295 46.408952,-35.49441 1.62629,-0.78473 3.26184,-1.53875 4.90667,-2.26103 16.28399,-7.15067 31.25442,-10.17366 42.42197,-10.3384 7.74549,-0.11425 12.8599,1.14472 15.68463,2.9837 2.86565,1.86562 3.55759,4.35409 3.73368,7.35062 0.12203,2.07645 -0.0282,7.37501 -0.0921,10.60871 -0.0821,4.15347 -0.1215,7.09464 -0.1451,9.05068 -0.0198,1.63828 -0.0885,5.21471 -0.20319,9.0497 -0.12564,4.20191 -0.2131,7.56291 -0.034,10.60969 0.1782,3.0325 0.52056,5.41431 -0.28187,7.47688 -0.82818,2.12877 -2.76318,3.73432 -6.35213,5.86446 -5.37017,3.18734 -11.97565,6.32269 -19.41803,12.16528 -0.7233,0.56783 -1.43693,1.14875 -2.13986,1.74335 -6.04692,5.11506 -12.99144,12.361314 -19.69688,22.725394 -6.89598,10.65859 -14.26713,25.71662 -20.07991,47.36705 -6.662612,24.99729 -10.443032,44.4604 -14.390952,58.91311 -2.34149,8.57181 -5.43725,16.67795 -8.73356,23.56651 -5.28003,11.0341 -10.97493,18.83589 -16.4987,24.0713 -5.50175,5.21455 -10.36822,7.42436 -12.97118,8.28168 z" />
  </g>
</svg>
