<?xml version="1.0" encoding="UTF-8" standalone="no"?>
<!-- Created with Inkscape (http://www.inkscape.org/) -->

<svg
   width="300mm"
   height="300mm"
   viewBox="0 0 300 300"
   version="1.1"
   id="svg5"
   inkscape:version="1.2.1 (9c6d41e410, 2022-07-14)"
   sodipodi:docname="DsB_Path.svg"
   inkscape:export-filename="Arrow&amp;Ball.png"
   inkscape:export-xdpi="96"
   inkscape:export-ydpi="96"
   xmlns:inkscape="http://www.inkscape.org/namespaces/inkscape"
   xmlns:sodipodi="http://sodipodi.sourceforge.net/DTD/sodipodi-0.dtd"
   xmlns="http://www.w3.org/2000/svg"
   xmlns:svg="http://www.w3.org/2000/svg">
  <sodipodi:namedview
     id="namedview7"
     pagecolor="#505050"
     bordercolor="#eeeeee"
     borderopacity="1"
     inkscape:showpageshadow="0"
     inkscape:pageopacity="0"
     inkscape:pagecheckerboard="0"
     inkscape:deskcolor="#505050"
     inkscape:document-units="mm"
     showgrid="false"
     inkscape:zoom="0.55244701"
     inkscape:cx="468.82325"
     inkscape:cy="570.19043"
     inkscape:window-width="1920"
     inkscape:window-height="1057"
     inkscape:window-x="-8"
     inkscape:window-y="1063"
     inkscape:window-maximized="1"
     inkscape:current-layer="layer1" />
  <defs
     id="defs2">
    <inkscape:path-effect
       effect="powerstroke"
       id="path-effect263"
       is_visible="true"
       lpeversion="1"
       offset_points="0.15776431,21.216178 | 2.5032984,25.890506 | 4.8271858,14.68631"
       not_jump="false"
       sort_points="true"
       interpolator_type="CentripetalCatmullRom"
       interpolator_beta="0.2"
       start_linecap_type="zerowidth"
       linejoin_type="round"
       miter_limit="4"
       scale_width="1"
       end_linecap_type="zerowidth" />
  </defs>
  <g
     inkscape:label="Layer 1"
     inkscape:groupmode="layer"
     id="layer1">
    <g
       id="path33977"
       style="fill:#000000;fill-opacity:1;stroke:#000000;stroke-opacity:1" />
    <g
       id="path33977-8"
       style="opacity:1;fill:#000000;fill-opacity:1;stroke:#000000;stroke-opacity:1" />
    <g
       id="path33977-8-0"
       style="opacity:1;fill:#000000;fill-opacity:1;stroke:#000000;stroke-opacity:1">
      <path
         id="path13252"
         style="color:#000000;fill:#000000;fill-opacity:1;stroke:#000000;stroke-linecap:round;stroke-linejoin:round;stroke-opacity:1;-inkscape-stroke:none"
         d="m 268.67969,0.8046875 c -17.416,0 -31.52344,14.5188435 -31.52344,32.2421875 0,17.723344 14.10744,32.240234 31.52344,32.240234 17.416,0 31.52343,-14.51689 31.52343,-32.240234 0,-17.723344 -14.10743,-32.2421875 -31.52343,-32.2421875 z M 190.13477,53.248047 c -28.7345,0 -52.11719,23.518518 -52.11719,52.355473 0,28.83695 23.38269,52.35742 52.11719,52.35742 28.73449,0 52.11718,-23.52047 52.11718,-52.35742 0,-28.836955 -23.38269,-52.355473 -52.11718,-52.355473 z M 82.615234,134.42578 c -43.882775,0 -79.4160152,36.62969 -79.4160152,81.33203 0,44.70235 35.5332402,81.33203 79.4160152,81.33203 43.882776,0 79.416016,-36.62968 79.416016,-81.33203 0,-44.70234 -35.53324,-81.33203 -79.416016,-81.33203 z"
         sodipodi:nodetypes="sssssssssssssss" />
    </g>
  </g>
</svg>
