<?xml version="1.0" encoding="UTF-8" standalone="no"?>
<!-- Created with Inkscape (http://www.inkscape.org/) -->

<svg
   width="300mm"
   height="300mm"
   viewBox="0 0 300 300"
   version="1.1"
   id="svg5"
   inkscape:version="1.2 (dc2aedaf03, 2022-05-15)"
   sodipodi:docname="DsL.svg"
   inkscape:export-filename="Arrow&amp;Ball.png"
   inkscape:export-xdpi="96"
   inkscape:export-ydpi="96"
   xmlns:inkscape="http://www.inkscape.org/namespaces/inkscape"
   xmlns:sodipodi="http://sodipodi.sourceforge.net/DTD/sodipodi-0.dtd"
   xmlns="http://www.w3.org/2000/svg"
   xmlns:svg="http://www.w3.org/2000/svg">
  <sodipodi:namedview
     id="namedview7"
     pagecolor="#505050"
     bordercolor="#eeeeee"
     borderopacity="1"
     inkscape:showpageshadow="0"
     inkscape:pageopacity="0"
     inkscape:pagecheckerboard="0"
     inkscape:deskcolor="#505050"
     inkscape:document-units="mm"
     showgrid="false"
     inkscape:zoom="0.55244701"
     inkscape:cx="467.91818"
     inkscape:cy="572.00056"
     inkscape:window-width="1920"
     inkscape:window-height="1057"
     inkscape:window-x="1912"
     inkscape:window-y="-8"
     inkscape:window-maximized="1"
     inkscape:current-layer="layer1" />
  <defs
     id="defs2">
    <inkscape:path-effect
       effect="powerstroke"
       id="path-effect263"
       is_visible="true"
       lpeversion="1"
       offset_points="0.15776431,21.216178 | 2.5032984,25.890506 | 4.8271858,14.68631"
       not_jump="false"
       sort_points="true"
       interpolator_type="CentripetalCatmullRom"
       interpolator_beta="0.2"
       start_linecap_type="zerowidth"
       linejoin_type="round"
       miter_limit="4"
       scale_width="1"
       end_linecap_type="zerowidth" />
  </defs>
  <g
     inkscape:label="Layer 1"
     inkscape:groupmode="layer"
     id="layer1">
    <path
       style="fill:#000000;stroke:#000000;stroke-width:40;stroke-linecap:round;stroke-linejoin:bevel;stroke-dasharray:319.999, 40;stroke-dashoffset:31.9999;stroke-opacity:1"
       d="M 44.020109,262.01603 117.85816,185.3044"
       id="path11432-8"
       sodipodi:nodetypes="cc" />
    <path
       style="fill:#000000;stroke:#000000;stroke-width:40;stroke-linecap:round;stroke-linejoin:bevel;stroke-dasharray:319.999, 40;stroke-dashoffset:31.9999;stroke-opacity:1"
       d="m 176.68366,262.49496 73.83805,-76.71163"
       id="path11432-8-91"
       sodipodi:nodetypes="cc" />
    <path
       style="fill:#000000;stroke:#000000;stroke-width:40;stroke-linecap:round;stroke-linejoin:bevel;stroke-dasharray:319.999, 40;stroke-dashoffset:31.9999;stroke-opacity:1"
       d="M 47.133157,120.49227 120.97121,43.780646"
       id="path11432-8-5"
       sodipodi:nodetypes="cc" />
    <path
       style="fill:#000000;stroke:#000000;stroke-width:40;stroke-linecap:round;stroke-linejoin:bevel;stroke-dasharray:319.999, 40;stroke-dashoffset:31.9999;stroke-opacity:1"
       d="M 179.79671,120.9712 253.63476,44.259576"
       id="path11432-8-91-0"
       sodipodi:nodetypes="cc" />
  </g>
</svg>
