<?xml version="1.0" encoding="UTF-8" standalone="no"?>
<!-- Created with Inkscape (http://www.inkscape.org/) -->

<svg
   width="300mm"
   height="300mm"
   viewBox="0 0 300 300"
   version="1.1"
   id="svg5"
   inkscape:version="1.2.1 (9c6d41e410, 2022-07-14)"
   sodipodi:docname="HiZ_Path.svg"
   inkscape:export-filename="Arrow&amp;Ball.png"
   inkscape:export-xdpi="96"
   inkscape:export-ydpi="96"
   xmlns:inkscape="http://www.inkscape.org/namespaces/inkscape"
   xmlns:sodipodi="http://sodipodi.sourceforge.net/DTD/sodipodi-0.dtd"
   xmlns="http://www.w3.org/2000/svg"
   xmlns:svg="http://www.w3.org/2000/svg">
  <sodipodi:namedview
     id="namedview7"
     pagecolor="#505050"
     bordercolor="#eeeeee"
     borderopacity="1"
     inkscape:showpageshadow="0"
     inkscape:pageopacity="0"
     inkscape:pagecheckerboard="0"
     inkscape:deskcolor="#505050"
     inkscape:document-units="mm"
     showgrid="false"
     inkscape:zoom="0.55244701"
     inkscape:cx="305.00663"
     inkscape:cy="535.79799"
     inkscape:window-width="1920"
     inkscape:window-height="1057"
     inkscape:window-x="-8"
     inkscape:window-y="1063"
     inkscape:window-maximized="1"
     inkscape:current-layer="layer1" />
  <defs
     id="defs2">
    <inkscape:path-effect
       effect="powerstroke"
       id="path-effect263"
       is_visible="true"
       lpeversion="1"
       offset_points="0.15776431,21.216178 | 2.5032984,25.890506 | 4.8271858,14.68631"
       not_jump="false"
       sort_points="true"
       interpolator_type="CentripetalCatmullRom"
       interpolator_beta="0.2"
       start_linecap_type="zerowidth"
       linejoin_type="round"
       miter_limit="4"
       scale_width="1"
       end_linecap_type="zerowidth" />
  </defs>
  <g
     inkscape:label="Layer 1"
     inkscape:groupmode="layer"
     id="layer1">
    <g
       id="path27484">
      <path
         id="path848"
         style="color:#000000;fill:#000000;stroke-linecap:round;stroke-linejoin:round;-inkscape-stroke:none"
         d="m 135.66406,22.931641 c -16.95089,-0.439167 -34.03958,4.765199 -47.574216,15.236328 -0.10076,0.07826 -0.198488,0.160355 -0.292969,0.246093 -16.770839,15.162812 -22.753256,35.637495 -28.246094,55.164063 -5.48164,19.486765 -10.547902,38.081955 -23.742187,51.722655 -14.739085,11.15294 -24.820017,29.38629 -22.654297,48.67774 -1.199589,14.00391 4.817765,29.65768 19.392578,35.49023 7.501187,4.485 15.420033,4.25582 22.208984,3.41016 6.489428,-0.80836 12.242337,-1.91667 17.044922,-1.30664 2.7384,1.42759 4.413946,3.25328 5.753906,5.87109 1.435366,2.8042 2.391946,6.48278 3.306641,10.56055 1.829391,8.15553 3.550513,18.52327 12.685547,24.79687 0.364427,0.25041 0.760459,0.45139 1.177734,0.59766 32.440681,11.36638 69.655401,-5.65055 85.615231,-35.07617 1.00334,0.49158 1.74361,0.80813 2.9668,1.35351 l -0.2168,-0.10351 c 19.33949,9.76678 45.03896,9.68075 61.66407,-6.73829 0.0391,-0.0384 0.0775,-0.0775 0.11523,-0.11718 8.83327,-9.31411 12.11559,-21.09318 12.48828,-32.70703 0.37269,-11.61386 -2.01025,-23.27305 -4.63086,-33.48438 l 0.0234,0.0977 c -1.80357,-7.65575 -2.43958,-16.61103 -0.8125,-24.25196 1.62708,-7.64092 5.18837,-13.7735 12.11914,-17.49609 0.0176,-0.01 0.0352,-0.0194 0.0527,-0.0293 11.68697,-6.46325 17.61254,-18.08366 19.04493,-30.025388 1.41324,-11.782094 -1.22416,-24.091618 -6.65235,-34.083984 -4.76924,-19.015 -26.15775,-30.951534 -44.79101,-24.007812 -0.24386,0.09081 -0.48025,0.20052 -0.70703,0.328125 -23.96454,13.485145 -55.2695,5.736863 -76.7597,-10.902384 -0.53747,-0.416359 -1.1542,-0.718743 -1.8125,-0.888672 -5.48325,-1.414654 -11.11728,-2.187596 -16.76758,-2.333984 z"
         sodipodi:nodetypes="sccscccscsscccccccsccsccscccccs" />
    </g>
  </g>
</svg>
