<?xml version="1.0" encoding="UTF-8" standalone="no"?>
<!-- Created with Inkscape (http://www.inkscape.org/) -->

<svg
   width="300mm"
   height="300mm"
   viewBox="0 0 300 300"
   version="1.1"
   id="svg5"
   inkscape:version="1.2.1 (9c6d41e410, 2022-07-14)"
   sodipodi:docname="MaS_Path.svg"
   inkscape:export-filename="Arrow&amp;Ball.png"
   inkscape:export-xdpi="96"
   inkscape:export-ydpi="96"
   xml:space="preserve"
   xmlns:inkscape="http://www.inkscape.org/namespaces/inkscape"
   xmlns:sodipodi="http://sodipodi.sourceforge.net/DTD/sodipodi-0.dtd"
   xmlns="http://www.w3.org/2000/svg"
   xmlns:svg="http://www.w3.org/2000/svg"><sodipodi:namedview
     id="namedview7"
     pagecolor="#505050"
     bordercolor="#eeeeee"
     borderopacity="1"
     inkscape:showpageshadow="0"
     inkscape:pageopacity="0"
     inkscape:pagecheckerboard="0"
     inkscape:deskcolor="#505050"
     inkscape:document-units="mm"
     showgrid="false"
     inkscape:zoom="0.27622351"
     inkscape:cx="349.35477"
     inkscape:cy="626.3044"
     inkscape:window-width="1920"
     inkscape:window-height="1057"
     inkscape:window-x="-8"
     inkscape:window-y="1063"
     inkscape:window-maximized="1"
     inkscape:current-layer="layer1" /><defs
     id="defs2"><inkscape:path-effect
       effect="powerstroke"
       id="path-effect43730"
       is_visible="true"
       lpeversion="1"
       offset_points="0.48110846,30.755339 | 0.94585152,35.621346 | 1.5991816,29.703905"
       not_jump="false"
       sort_points="true"
       interpolator_type="CentripetalCatmullRom"
       interpolator_beta="0.2"
       start_linecap_type="zerowidth"
       linejoin_type="round"
       miter_limit="4"
       scale_width="1"
       end_linecap_type="zerowidth" /><inkscape:path-effect
       effect="powerstroke"
       id="path-effect263"
       is_visible="true"
       lpeversion="1"
       offset_points="0.15776431,21.216178 | 2.5032984,25.890506 | 4.8271858,14.68631"
       not_jump="false"
       sort_points="true"
       interpolator_type="CentripetalCatmullRom"
       interpolator_beta="0.2"
       start_linecap_type="zerowidth"
       linejoin_type="round"
       miter_limit="4"
       scale_width="1"
       end_linecap_type="zerowidth" /><clipPath
       clipPathUnits="userSpaceOnUse"
       id="clipPath39249"><rect
         style="opacity:0.446903;fill:none;fill-opacity:1;stroke:#000000;stroke-width:30;stroke-linecap:round;stroke-linejoin:round;stroke-dasharray:none;stroke-dashoffset:0"
         id="rect39251"
         width="117.3378"
         height="125.47961"
         x="-74.713051"
         y="68.965889" /></clipPath></defs><g
     inkscape:label="Layer 1"
     inkscape:groupmode="layer"
     id="layer1"><path
       id="path43756-0"
       style="color:#000000;fill:#000000;stroke-linecap:round;stroke-linejoin:bevel"
       d="M 204.2339,0.32695603 C 160.36009,-0.82629187 122.61519,19.06885 109.3937,63.095708 c 1.39493,-0.01236 8.60335,-0.970619 10.00361,-0.844151 80.62643,7.281991 111.90278,52.221933 115.14944,128.783203 0.0891,2.10021 -1.3645,8.49986 -1.52564,10.57371 41.90483,-11.98807 65.45894,-49.74372 66.69779,-95.3452 C 301.25425,49.216767 258.5041,1.7874124 204.23389,0.32699043 Z M 184.33779,205.40273 c -203.473591,-153.649498 -101.736789,-76.82475 0,0 z m -80.56587,-90.22064 c 4.75889,45.60447 33.2641,79.70019 76.2555,87.58653 0.44211,-3.11173 1.07636,-7.00472 1.16331,-10.23606 1.18564,-44.05452 -26.13851,-76.74721 -68.31769,-77.88238 -2.37933,-0.064 -6.77116,0.3778 -9.10112,0.53195 z m 12.36871,-48.047324 c -62.052,2e-6 -112.224617,51.961464 -112.2246144,114.859374 3.2e-6,62.89791 50.1726184,114.85937 112.2246144,114.85938 62.05199,0 112.2246,-51.96147 112.2246,-114.85938 1e-5,-62.89791 -50.17261,-114.859377 -112.2246,-114.859374 z m 0,40.000004 c 39.81697,-1e-5 72.22461,32.97875 72.2246,74.85937 0,41.88062 -32.40763,74.85938 -72.2246,74.85938 -39.816979,-10e-6 -72.224612,-32.97877 -72.224614,-74.85938 -2e-6,-41.88062 32.407633,-74.85937 72.224614,-74.85937 z" /></g></svg>
