<?xml version="1.0" encoding="UTF-8" standalone="no"?>
<!-- Created with Inkscape (http://www.inkscape.org/) -->

<svg
   width="300mm"
   height="300mm"
   viewBox="0 0 300 300"
   version="1.1"
   id="svg5"
   inkscape:version="1.2.1 (9c6d41e410, 2022-07-14)"
   sodipodi:docname="Ri_Path_UpsideDown.svg"
   inkscape:export-filename="Arrow&amp;Ball.png"
   inkscape:export-xdpi="96"
   inkscape:export-ydpi="96"
   xml:space="preserve"
   xmlns:inkscape="http://www.inkscape.org/namespaces/inkscape"
   xmlns:sodipodi="http://sodipodi.sourceforge.net/DTD/sodipodi-0.dtd"
   xmlns="http://www.w3.org/2000/svg"
   xmlns:svg="http://www.w3.org/2000/svg"><sodipodi:namedview
     id="namedview7"
     pagecolor="#505050"
     bordercolor="#eeeeee"
     borderopacity="1"
     inkscape:showpageshadow="0"
     inkscape:pageopacity="0"
     inkscape:pagecheckerboard="0"
     inkscape:deskcolor="#505050"
     inkscape:document-units="mm"
     showgrid="false"
     inkscape:zoom="0.35355339"
     inkscape:cx="1016.8196"
     inkscape:cy="766.50375"
     inkscape:window-width="1920"
     inkscape:window-height="1057"
     inkscape:window-x="-8"
     inkscape:window-y="1063"
     inkscape:window-maximized="1"
     inkscape:current-layer="layer1" /><defs
     id="defs2"><inkscape:path-effect
       effect="powerstroke"
       id="path-effect45972"
       is_visible="true"
       lpeversion="1"
       offset_points="0.24857645,52.824556 | 1.0559493,45.235261 | 1.7784934,28.433604"
       not_jump="false"
       sort_points="true"
       interpolator_type="CentripetalCatmullRom"
       interpolator_beta="0.2"
       start_linecap_type="zerowidth"
       linejoin_type="round"
       miter_limit="4"
       scale_width="1"
       end_linecap_type="zerowidth" /><inkscape:path-effect
       effect="powerstroke"
       id="path-effect43730"
       is_visible="true"
       lpeversion="1"
       offset_points="0.48110846,30.755339 | 0.94585152,35.621346 | 1.5991816,29.703905"
       not_jump="false"
       sort_points="true"
       interpolator_type="CentripetalCatmullRom"
       interpolator_beta="0.2"
       start_linecap_type="zerowidth"
       linejoin_type="round"
       miter_limit="4"
       scale_width="1"
       end_linecap_type="zerowidth" /><inkscape:path-effect
       effect="powerstroke"
       id="path-effect263"
       is_visible="true"
       lpeversion="1"
       offset_points="0.15776431,21.216178 | 2.5032984,25.890506 | 4.8271858,14.68631"
       not_jump="false"
       sort_points="true"
       interpolator_type="CentripetalCatmullRom"
       interpolator_beta="0.2"
       start_linecap_type="zerowidth"
       linejoin_type="round"
       miter_limit="4"
       scale_width="1"
       end_linecap_type="zerowidth" /><clipPath
       clipPathUnits="userSpaceOnUse"
       id="clipPath39249"><rect
         style="opacity:0.446903;fill:none;fill-opacity:1;stroke:#000000;stroke-width:30;stroke-linecap:round;stroke-linejoin:round;stroke-dasharray:none;stroke-dashoffset:0"
         id="rect39251"
         width="117.3378"
         height="125.47961"
         x="-74.713051"
         y="68.965889" /></clipPath></defs><g
     inkscape:label="Layer 1"
     inkscape:groupmode="layer"
     id="layer1"><path
       id="path46029-1"
       style="color:#000000;fill:#000000;fill-opacity:1;stroke-linecap:round;stroke-linejoin:bevel;-inkscape-stroke:none"
       d="M 153.48048,251.76496 A 17.5,17.5 0 0 1 139.3711,231.43293 c 0,0 6.00364,-33.07618 34.78907,-59.9629 34.21171,-31.95509 77.14452,-33.92773 77.14452,-33.92773 a 17.5,17.5 0 0 1 18.4375,16.50976 17.5,17.5 0 0 1 -16.50977,18.4375 c 0,0 -31.15052,2.1126 -55.18163,24.55859 -20.36722,19.02379 -24.23633,40.60743 -24.23633,40.60743 a 17.5,17.5 0 0 1 -20.33398,14.10938 z M 55.484375,184.4212 a 20,20 0 0 1 -16.74219,-22.79492 c 0,0 1.93829,-10.82398 8.64063,-23.86914 6.70233,-13.04516 18.46333,-30.12654 38.51953,-48.164055 35.415525,-31.85091 78.501965,-38.13477 78.501965,-38.13477 a 20,20 0 0 1 22.86718,16.64453 20,20 0 0 1 -16.64648,22.86719 c 0,0 -32.72074,5.65124 -57.97461,28.363275 -16.531965,14.868 -25.154585,27.88043 -29.687505,36.70313 -4.53292,8.82269 -4.68164,11.64257 -4.68164,11.64257 A 20,20 0 0 1 55.484375,184.4212 Z M 246.53906,295.00519 c -9.30425,-0.46575 -17.76288,-3.17605 -25.39648,-7.37891 -15.26721,-8.40571 -27.79787,-21.68026 -42.41796,-33.99218 -28.63711,-24.11599 -63.69239,-50.19023 -94.480475,-71.63673 l -0.35547,-0.26367 c -10.87548,-8.57188 -25.94694,-14.72432 -40.25586,-22.07031 -14.30893,-7.34599 -28.46532,-16.27945 -34.9863294,-32.0957 -9.50699002,-23.05856 -9.97584,-49.131075 -6.19336,-71.572265 1.68823,-10.01614 4.67046,-20.84548 9.7792994,-30.29687 5.10345,-9.44143 12.66524,-17.8864702 23.54297,-20.9531302 15.16883,-4.40113997 34.49863,-0.76263 53.09961,5.19531 18.614915,5.9624102 35.929865,14.3372102 46.044925,23.4804702 l 0.17969,0.16797 c 25.82499,24.9306 41.99142,35.69388 67.02733,63.25586 19.26253,21.206075 47.23878,41.271455 70.08008,74.814445 l 0.36328,0.58985 c 14.48949,26.18218 24.39879,50.21413 26.79297,70.57617 1.19709,10.18103 0.50991,19.60374 -3.10351,27.77344 -3.607,8.15518 -10.3726,14.70084 -19.37305,18.36328 -10.96665,4.73566 -21.07814,6.50698 -30.34766,6.04297 z m 0.76563,-14.60742 c 6.7922,0.33472 14.38692,-1.18827 23.73633,-5.24219 l 0.16601,-0.0703 c 5.9383,-2.40748 9.19638,-5.71974 11.33399,-10.55273 2.13761,-4.83299 2.91268,-11.545 1.92382,-19.95508 -1.96913,-16.74714 -10.97493,-39.60874 -24.85351,-64.74415 -21.14227,-30.92664 -47.79234,-50.01051 -68.58788,-72.9043 -24.11548,-26.548655 -39.77237,-36.926685 -66.16211,-62.378895 -6.83309,-6.1766 -23.43957,-14.8397 -40.562515,-20.32422 -17.12293,-5.48452 -35.33011,-7.70062 -44.36718,-5.07031 l -0.0684,0.0215 c -5.64816,1.58541 -10.48189,6.33999 -14.43555,13.6543 -3.95366,7.31431 -6.69208,16.80719 -8.18359,25.65625 -3.423,20.30838 -2.75405,43.897895 5.27148,63.363275 4.31798,10.47296 14.55396,17.5818 27.96875,24.46875 13.41479,6.88695 29.39758,13.15636 42.68945,23.63281 l -0.35547,-0.26367 c 31.083685,21.65237 66.394735,47.90482 95.568415,72.47266 15.35973,12.93481 27.70053,25.55981 39.99022,32.32618 6.14485,3.38318 12.13554,5.57543 18.92774,5.91015 z" /></g></svg>
