<?xml version="1.0" encoding="UTF-8" standalone="no"?>
<!-- Created with Inkscape (http://www.inkscape.org/) -->

<svg
   width="300mm"
   height="300mm"
   viewBox="0 0 300 300"
   version="1.1"
   id="svg5"
   inkscape:version="1.2 (dc2aedaf03, 2022-05-15)"
   sodipodi:docname="CnS_Path.svg"
   inkscape:export-filename="Arrow&amp;Ball.png"
   inkscape:export-xdpi="96"
   inkscape:export-ydpi="96"
   xml:space="preserve"
   xmlns:inkscape="http://www.inkscape.org/namespaces/inkscape"
   xmlns:sodipodi="http://sodipodi.sourceforge.net/DTD/sodipodi-0.dtd"
   xmlns="http://www.w3.org/2000/svg"
   xmlns:svg="http://www.w3.org/2000/svg"><sodipodi:namedview
     id="namedview7"
     pagecolor="#505050"
     bordercolor="#eeeeee"
     borderopacity="1"
     inkscape:showpageshadow="0"
     inkscape:pageopacity="0"
     inkscape:pagecheckerboard="0"
     inkscape:deskcolor="#505050"
     inkscape:document-units="mm"
     showgrid="false"
     inkscape:zoom="0.55244701"
     inkscape:cx="743.05769"
     inkscape:cy="631.7348"
     inkscape:window-width="1920"
     inkscape:window-height="1057"
     inkscape:window-x="-8"
     inkscape:window-y="-8"
     inkscape:window-maximized="1"
     inkscape:current-layer="layer1" /><defs
     id="defs2"><inkscape:path-effect
       effect="powerstroke"
       id="path-effect263"
       is_visible="true"
       lpeversion="1"
       offset_points="0.15776431,21.216178 | 2.5032984,25.890506 | 4.8271858,14.68631"
       not_jump="false"
       sort_points="true"
       interpolator_type="CentripetalCatmullRom"
       interpolator_beta="0.2"
       start_linecap_type="zerowidth"
       linejoin_type="round"
       miter_limit="4"
       scale_width="1"
       end_linecap_type="zerowidth" /><clipPath
       clipPathUnits="userSpaceOnUse"
       id="clipPath39249"><rect
         style="opacity:0.446903;fill:none;fill-opacity:1;stroke:#000000;stroke-width:30;stroke-linecap:round;stroke-linejoin:round;stroke-dasharray:none;stroke-dashoffset:0"
         id="rect39251"
         width="117.3378"
         height="125.47961"
         x="-74.713051"
         y="68.965889" /></clipPath><filter
       style="color-interpolation-filters:sRGB;"
       inkscape:label="Lightness-Contrast"
       id="filter2789"
       x="0"
       y="0"
       width="1"
       height="1"><feColorMatrix
         values="5.824 0 0 -1.62424 -2.412 0 5.824 0 -1.62424 -2.412 0 0 5.824 -1.62424 -2.412 0 0 0 1 0"
         id="feColorMatrix2787" /></filter></defs><g
     inkscape:label="Layer 1"
     inkscape:groupmode="layer"
     id="layer1"><path
       id="path1677"
       style="fill:#000000;stroke-width:0.71946"
       d="m 172.13078,288.80358 c -2.22754,-0.59245 -5.43418,-1.84466 -7.12585,-2.78269 -1.69167,-0.93804 -4.59417,-3.30347 -6.45,-5.25651 -1.88903,-1.98798 -4.0758,-5.30732 -4.96811,-7.54118 -1.42207,-3.5601 -1.56041,-5.02704 -1.28349,-13.60964 0.31039,-9.61944 0.31039,-9.61944 -11.57447,-13.19955 -6.53666,-1.96907 -17.61747,-5.57887 -24.624,-8.02179 -7.00654,-2.44293 -17.490908,-6.31691 -23.298598,-8.60885 -5.807698,-2.29193 -14.114578,-5.74403 -18.459741,-7.67132 -4.345163,-1.9273 -11.334743,-5.29177 -15.532399,-7.47662 -4.197657,-2.18485 -11.45973,-6.36449 -16.137941,-9.28808 -5.418939,-3.38651 -10.929189,-7.61636 -15.183292,-11.65522 -4.97476,-4.72304 -7.320851,-7.58874 -9.200666,-11.23841 -2.076483,-4.0315 -2.579701,-5.91013 -2.842265,-10.61081 -0.229591,-4.11037 0.02955,-6.75947 0.924183,-9.44774 0.683779,-2.05468 2.335823,-5.15921 3.67121,-6.89896 1.335387,-1.73975 4.227712,-4.33489 6.427389,-5.76698 2.199677,-1.43209 5.938274,-3.24773 8.307994,-4.03476 2.369721,-0.78703 7.029441,-1.93531 10.354933,-2.55174 3.914673,-0.72563 10.088193,-1.12765 17.510742,-1.14029 6.305415,-0.0107 13.711041,0.21485 16.456948,0.5013 4.066574,0.42422 4.992557,0.33752 4.992557,-0.46746 0,-0.54355 -2.751617,-6.15853 -6.114701,-12.47774 C 74.618128,123.23934 69.308085,114.44745 66.181117,110.021 63.054149,105.59456 57.974534,98.981139 54.893084,95.324512 51.811634,91.667884 45.888424,85.094871 41.730395,80.717814 37.572367,76.340758 30.342716,69.442385 25.664505,65.388099 20.986294,61.333813 15.80922,56.374782 14.159896,54.368039 12.510573,52.361289 10.180713,48.709679 8.98243,46.253349 7.0305116,42.252152 6.8037334,41.058839 6.8037334,34.788958 c 0,-6.150706 0.2432651,-7.48957 2.0084966,-11.054218 1.190071,-2.403192 3.811668,-5.762026 6.433658,-8.242906 2.781116,-2.631442 6.157985,-4.954258 9.08928,-6.2521541 2.565265,-1.135829 6.4555,-2.3865915 8.644966,-2.7794637 2.189466,-0.3928792 5.682814,-0.7096726 7.762995,-0.703983 2.080181,0.0056 5.945588,0.4831717 8.589795,1.0610658 2.644206,0.5779011 5.806159,1.4100515 7.026561,1.8492247 1.220403,0.4391731 4.548775,1.8810323 7.396381,3.2041223 2.847607,1.32309 7.340908,3.851433 9.985115,5.618546 2.644206,1.76712 7.275982,5.28024 10.292833,7.806938 3.016858,2.526698 9.133924,8.373096 13.59349,12.991993 4.459566,4.618898 10.798586,11.576855 14.086706,15.462124 5.97842,7.064135 5.97842,7.064135 10.20988,5.437269 2.32731,-0.894779 5.83493,-1.968672 7.79471,-2.386438 1.95979,-0.417758 6.39236,-0.751984 9.85017,-0.742718 3.45781,0.0092 8.20633,0.499806 10.55227,1.090094 2.34594,0.590281 6.00715,1.901985 8.13602,2.914896 2.12887,1.012903 5.49203,2.959943 7.47367,4.326745 3.47622,2.397656 3.71047,2.455448 6.65674,1.64241 1.67957,-0.463485 6.04928,-1.458984 9.71049,-2.212228 4.13334,-0.850374 9.46053,-1.368404 14.05312,-1.366571 4.06801,0.0014 9.6217,0.449209 12.34153,0.994617 2.71984,0.545415 6.97309,1.7667 9.45168,2.713973 2.4786,0.947266 6.38562,2.778757 8.68229,4.069977 2.29666,1.291213 6.53075,4.557662 9.40909,7.258773 2.87834,2.70111 6.45451,6.652605 7.94706,8.781091 1.49254,2.128493 4.20472,6.689381 6.02705,10.135303 1.82234,3.445922 4.66862,10.35934 6.32506,15.36315 1.65645,5.0038 4.19479,13.66424 5.64077,19.2454 1.44597,5.58117 3.43168,14.55653 4.41268,19.94524 0.98101,5.38872 2.151,14.23323 2.59999,19.65448 0.57784,6.97702 0.59217,12.39535 0.049,18.54558 -0.42203,4.77881 -0.96015,9.34904 -1.19584,10.15606 -0.34656,1.18672 0.28558,1.90086 3.30585,3.73466 2.0539,1.24706 4.79162,3.40672 6.08384,4.79926 1.2922,1.39254 3.10708,4.12089 4.03306,6.063 0.92597,1.94211 1.90886,5.30838 2.18417,7.4806 0.35895,2.83203 0.1453,5.10918 -0.75511,8.04808 -0.69064,2.25422 -2.71825,6.1832 -4.50582,8.73107 -1.78755,2.54788 -5.6193,6.7472 -8.51498,9.33183 -2.89568,2.58463 -7.90143,6.54901 -11.1239,8.80974 -3.22246,2.26073 -8.92791,5.91245 -12.67875,8.11495 -3.75085,2.20249 -11.14661,6.13565 -16.43502,8.74034 -5.28841,2.60471 -12.99951,6.15534 -17.13576,7.89032 -4.13627,1.73498 -11.12585,4.29625 -15.5324,5.69173 -5.92457,1.87619 -9.64988,2.61416 -14.29886,2.83252 -4.27315,0.20071 -7.58421,-0.0498 -10.337,-0.78187 z m 16.42759,-8.00923 c 3.14642,-0.75024 9.19459,-2.64917 13.44036,-4.21985 4.24577,-1.57068 12.65505,-5.18 18.68728,-8.02072 6.03224,-2.84071 14.1445,-6.99926 18.02725,-9.24118 3.88275,-2.24194 9.87382,-5.95742 13.31348,-8.25664 3.43967,-2.29921 9.12554,-6.86562 12.63526,-10.14758 3.81371,-3.56621 7.16175,-7.43616 8.32093,-9.61805 1.43524,-2.70149 1.93539,-4.7033 1.92337,-7.69816 -0.01,-2.39043 -0.56764,-5.19574 -1.36317,-6.85264 -0.74081,-1.54294 -2.53682,-3.79385 -3.99115,-5.00204 -1.45432,-1.20819 -4.51458,-2.85885 -6.80059,-3.66813 -2.93007,-1.03728 -5.83944,-1.46648 -9.86083,-1.45471 -3.13744,0.009 -6.95259,0.29095 -8.47809,0.62614 -1.5255,0.33518 -2.77364,0.38562 -2.77364,0.11208 0,-0.27355 1.74739,-1.15415 3.8831,-1.95691 2.1357,-0.80276 5.01448,-1.80549 6.39729,-2.22828 1.38281,-0.4228 3.43608,-0.76872 4.56284,-0.76872 1.8316,0 2.13871,-0.35219 2.89873,-3.32421 0.46754,-1.82831 1.03322,-8.67793 1.25706,-15.22137 0.30357,-8.87411 0.0958,-14.20889 -0.81768,-20.99499 -0.67357,-5.0038 -2.21141,-13.66423 -3.41743,-19.2454 -1.20602,-5.58117 -3.66918,-15.22437 -5.47369,-21.42934 -1.80451,-6.20497 -4.29405,-13.76317 -5.53231,-16.796 -1.23825,-3.03282 -3.75796,-7.946081 -5.59934,-10.918355 -1.84138,-2.972268 -5.36735,-7.446692 -7.8355,-9.94315 -2.46814,-2.496466 -6.61646,-5.811204 -9.21849,-7.366092 -2.60202,-1.554882 -7.31989,-3.653255 -10.48417,-4.663051 -4.22666,-1.348823 -7.81391,-1.925163 -13.51942,-2.172085 -6.02178,-0.260611 -9.40416,-0.01484 -15.05841,1.094161 -4.0107,0.786647 -7.37625,1.527112 -7.47898,1.645482 -0.10273,0.11837 -0.3596,2.577149 -0.57083,5.46396 -0.21668,2.961504 -0.13224,4.486335 0.19379,3.499165 0.31781,-0.96227 0.61101,-3.13682 0.65156,-4.83234 0.0714,-2.987853 0.11719,-3.04554 1.48541,-1.873943 0.77644,0.664842 1.79517,2.084775 2.26387,3.155393 0.46868,1.070626 0.74872,3.463908 0.6223,5.318409 -0.13522,1.98381 -0.62616,3.495323 -1.19258,3.671842 -0.52951,0.16502 -2.69295,-1.434791 -4.80765,-3.555131 -2.1147,-2.12034 -5.67551,-5.713947 -7.91292,-7.985787 -2.23741,-2.27184 -5.69672,-5.181297 -7.68738,-6.465463 -1.99065,-1.284159 -5.81828,-3.069299 -8.50583,-3.966975 -3.60647,-1.204602 -6.51245,-1.636007 -11.09366,-1.646903 -4.14126,-0.0099 -7.89538,0.460952 -11.27948,1.414544 -2.78976,0.786109 -5.0723,1.654006 -5.0723,1.928656 0,0.274649 1.08172,0.952326 2.40383,1.505943 1.3221,0.553623 3.97422,2.396319 5.8936,4.09489 2.33525,2.0666 3.98696,4.345592 4.99256,6.888673 1.00458,2.540471 1.50277,5.487377 1.50277,8.889097 0,3.47092 -0.35493,5.520625 -1.11643,6.447204 -1.0765,1.309871 -1.22536,1.245815 -4.16127,-1.790781 -1.67465,-1.732087 -3.57789,-3.936561 -4.22942,-4.898831 -0.65152,-0.962271 -4.62441,-6.283507 -8.82863,-11.824973 C 115.54953,70.959742 108.71893,62.469012 104.57464,57.632921 100.43036,52.79683 92.879116,44.769508 87.794104,39.794437 82.709092,34.819366 75.821909,28.732856 72.489252,26.268863 69.156595,23.80487 63.55016,20.398545 60.030506,18.699252 56.510853,16.99996 51.119671,15.080955 48.050102,14.434792 44.215126,13.627507 40.939514,13.393707 37.580067,13.687461 34.165201,13.986073 31.129953,14.84404 27.5136,16.532926 c -3.874244,1.809328 -5.892665,3.306585 -8.018822,5.948336 -1.562745,1.941714 -3.331942,5.032898 -3.931548,6.869294 -0.745329,2.282695 -0.939989,4.667187 -0.615365,7.537901 0.304965,2.69687 1.314525,5.690573 2.822091,8.368491 1.768824,3.141998 5.784411,7.367289 16.294952,17.145908 7.671229,7.13703 16.52642,15.810739 19.678202,19.274912 3.151782,3.464174 8.524622,9.823717 11.939644,14.132309 3.415023,4.308603 8.342381,11.069883 10.949686,15.025073 2.607304,3.95519 6.444948,10.3501 8.528094,14.21092 2.083146,3.86082 4.900539,9.69653 6.260866,12.96825 1.360321,3.27172 2.637786,7.09791 2.838798,8.50263 0.314442,2.19736 0.08541,2.72768 -1.639992,3.79737 -1.859399,1.15275 -2.660397,1.1763 -10.99708,0.32331 -4.945381,-0.50601 -13.484904,-0.91848 -18.976717,-0.91661 -5.491813,0.002 -12.148555,0.37525 -14.792762,0.82972 -2.644206,0.45448 -6.80467,1.44273 -9.245476,2.1961 -2.440805,0.75339 -6.073852,2.54937 -8.073437,3.99109 -1.999585,1.44172 -4.329445,3.881 -5.177467,5.42063 -1.162681,2.11091 -1.541858,4.09011 -1.541858,8.04808 0,4.13471 0.379063,5.97744 1.785929,8.68195 0.98226,1.88825 3.953922,5.6077 6.603692,8.26543 2.649771,2.65773 7.504334,6.66238 10.787919,8.89922 3.283586,2.23684 8.249247,5.3824 11.034804,6.99014 2.785556,1.60773 9.109462,4.90339 14.053123,7.32367 4.943662,2.42029 13.981033,6.46454 20.083047,8.98724 6.102015,2.52269 16.586387,6.53817 23.298597,8.92329 6.71222,2.38511 15.5324,5.42448 19.60041,6.75415 4.06801,1.32967 12.20011,3.83177 18.07133,5.56022 10.67494,3.14264 10.67494,3.14264 14.05312,0.0661 1.858,-1.69212 5.1573,-4.3806 7.33178,-5.97438 2.17448,-1.59379 6.08532,-4.02576 8.69075,-5.40439 2.60543,-1.37863 4.73715,-2.62707 4.73715,-2.77431 0,-0.14725 -0.58247,-0.0619 -1.29437,0.18957 -0.7119,0.25152 -2.95855,1.40469 -4.99256,2.5626 -2.034,1.15793 -4.86312,2.88973 -6.28692,3.84845 -1.4238,0.95872 -4.59454,3.5746 -7.04608,5.81306 -4.45735,4.06994 -4.45735,4.06994 -15.90222,0.69213 -6.29468,-1.85779 -15.93817,-4.88145 -21.42999,-6.71924 -5.49181,-1.8378 -16.64185,-5.82163 -24.77787,-8.85298 -8.136022,-3.03135 -21.449508,-8.63327 -29.585527,-12.44873 -8.136019,-3.81545 -18.953226,-9.56358 -24.038238,-12.77362 -5.085011,-3.21004 -11.575336,-8.04733 -14.422942,-10.74953 -2.847607,-2.7022 -6.175927,-6.64519 -7.396267,-8.76218 -1.906432,-3.30719 -2.218816,-4.58801 -2.218915,-9.09783 -9.7e-5,-4.48497 0.300403,-5.73247 2.06507,-8.57295 1.13585,-1.82832 2.226119,-3.32421 2.422818,-3.32421 0.196698,0 -0.150169,0.92913 -0.770817,2.06475 -0.641612,1.17397 -1.128451,3.86624 -1.128451,6.24047 0,2.58614 0.54946,5.38859 1.443384,7.36179 0.793861,1.75234 2.857612,4.63776 4.586112,6.41203 1.7285,1.77429 6.321162,5.2271 10.205915,7.67291 3.884754,2.44581 12.222164,6.93155 18.527579,9.96831 6.305415,3.03676 16.290529,7.43397 22.189143,9.77158 5.898614,2.33761 15.243882,5.83605 20.767256,7.77432 5.52338,1.93827 15.84133,5.24787 22.92878,7.35467 7.08746,2.1068 17.89905,5.07717 24.02577,6.60082 11.13949,2.77027 11.13949,2.77027 14.55692,1.12696 1.87958,-0.90383 5.94505,-2.29944 9.03437,-3.10137 3.08932,-0.80194 6.69025,-1.4792 8.00205,-1.50503 1.31179,-0.0258 3.33132,-0.50015 4.48783,-1.05404 1.15651,-0.55389 2.21894,-0.89712 2.36097,-0.76274 0.14202,0.13438 -2.42271,2.11849 -5.69943,4.40914 -3.27671,2.29063 -8.20586,6.44258 -10.95365,9.22654 -3.0689,3.10931 -6.21252,7.27426 -8.14989,10.79773 -1.73466,3.15478 -3.60545,7.34035 -4.15731,9.30125 -0.55186,1.9609 -1.00733,4.84761 -1.01216,6.4149 -0.005,1.56729 0.50407,4.24415 1.13088,5.94858 0.62682,1.70443 1.70854,3.73675 2.40382,4.51628 0.69529,0.77952 2.52747,2.32375 4.07153,3.4316 1.54404,1.10786 4.53958,2.41156 6.65674,2.89712 2.11716,0.48556 4.84789,0.90478 6.06829,0.9316 1.22041,0.0268 4.79327,-0.56505 7.93969,-1.3153 z m -12.07947,-0.0157 c -1.87009,-0.30337 -4.53278,-1.09381 -5.9171,-1.75653 -1.38433,-0.66271 -3.29824,-1.87668 -4.25313,-2.69769 -0.95489,-0.82103 -2.34166,-2.60965 -3.08171,-3.97473 -0.74005,-1.36509 -1.57312,-3.62978 -1.85128,-5.03266 -0.27815,-1.40288 -0.12202,-4.70315 0.34696,-7.33393 0.46898,-2.63078 1.18983,-5.24742 1.60189,-5.81476 0.56217,-0.77399 0.62631,-0.62046 0.25697,0.61502 -0.27073,0.9056 -0.49224,3.49944 -0.49224,5.7641 0,2.74485 0.46182,4.879 1.38526,6.40155 0.77155,1.27212 2.8523,3.00543 4.6967,3.91246 2.80117,1.37753 4.06498,1.57378 8.20153,1.27355 2.68954,-0.19521 8.18135,-1.38206 12.20402,-2.63744 4.02267,-1.25539 11.97367,-4.51188 17.66889,-7.23666 5.69521,-2.72477 14.96182,-7.70621 20.59247,-11.06986 5.63065,-3.36364 13.22539,-8.51422 16.87718,-11.44573 3.6518,-2.93151 8.33696,-7.25871 10.41147,-9.61601 2.07451,-2.35729 4.58752,-5.97038 5.58448,-8.0291 1.33893,-2.7649 1.70948,-4.47085 1.4179,-6.52777 -0.2171,-1.53156 -1.00541,-3.43454 -1.75179,-4.22884 -0.74637,-0.7943 -2.6884,-2.05142 -4.3156,-2.7936 -2.95855,-1.34942 -2.95855,-1.34942 1.10946,-0.9672 2.28255,0.21446 5.84088,1.2379 8.10736,2.33182 2.57905,1.24478 4.83474,3.02039 6.23945,4.9115 1.67254,2.25166 2.27578,3.95184 2.51571,7.09035 0.17358,2.27065 -0.0813,5.26636 -0.5664,6.65713 -0.48509,1.39077 -2.35631,4.38439 -4.15826,6.6525 -1.80193,2.2681 -6.01899,6.29871 -9.37124,8.9569 -3.35225,2.6582 -7.81114,5.97468 -9.90866,7.36996 -2.09751,1.39528 -6.59082,4.17986 -9.98511,6.18795 -3.3943,2.00809 -11.16401,6.07204 -17.26602,9.03102 -6.10202,2.95897 -14.75578,6.73395 -19.23059,8.38885 -4.47482,1.6549 -10.13305,3.55008 -12.57385,4.21152 -2.44081,0.66144 -5.9356,1.37256 -7.7662,1.58026 -1.83061,0.20771 -4.85844,0.12944 -6.72852,-0.17393 z m 72.9792,-81.16804 c 0.94438,-2.19907 2.40203,-6.4727 3.23921,-9.49696 0.83718,-3.02425 1.89465,-8.34687 2.34994,-11.82804 0.48759,-3.72826 0.63824,-10.06824 0.36657,-15.42722 -0.25367,-5.00381 -0.95849,-13.28175 -1.56627,-18.39543 -0.60778,-5.11367 -1.27743,-10.62486 -1.48812,-12.24708 -0.21069,-1.62221 0.29935,-0.43008 1.13342,2.64919 0.83408,3.07926 2.30717,9.69268 3.27354,14.69649 0.96637,5.0038 2.16005,12.62754 2.65263,16.94163 0.5341,4.67792 0.73033,12.02199 0.48615,18.19566 -0.22519,5.69352 -0.79298,11.84775 -1.26177,13.67606 -0.70441,2.74728 -1.14246,3.32421 -2.52398,3.32421 -0.9194,0 -3.18066,0.4297 -5.02502,0.9549 -3.35337,0.95491 -3.35337,0.95491 -1.6363,-3.04341 z M 98.053069,153.88769 c -6.382899,-2.22889 -6.382899,-2.22889 -4.622738,-3.48513 0.993793,-0.70928 1.760154,-1.9856 1.760154,-2.93144 0,-0.92135 -0.871012,-3.97717 -1.935581,-6.79069 -1.064568,-2.81355 -3.500988,-8.26477 -5.414269,-12.11385 C 85.927354,124.7175 82.261811,118.26154 79.69499,114.22 77.128167,110.17847 72.743587,103.82409 69.95148,100.09916 67.159371,96.374226 61.816168,89.760804 58.077694,85.402664 54.339219,81.044525 44.186752,70.827208 35.516656,62.697514 22.922883,50.888707 19.385964,47.158017 17.928446,44.145711 16.925028,42.07191 15.909945,38.645878 15.672707,36.532312 15.435469,34.41874 15.56094,31.744685 15.951532,30.589961 c 0.627135,-1.854026 0.717601,-1.604165 0.773741,2.137052 0.04554,3.034769 0.592312,5.240482 1.927505,7.775669 1.025163,1.946515 3.9413,5.393795 6.480306,7.66061 2.539007,2.266822 10.05036,8.347433 16.691896,13.512466 6.641537,5.16504 15.201605,12.565774 19.022375,16.446075 3.820769,3.880308 9.662664,10.361811 12.981987,14.403347 3.319324,4.041535 9.230709,11.59973 13.136412,16.79599 3.905703,5.19626 10.508682,14.59434 14.673286,20.88461 4.16461,6.29028 8.12449,13.09522 8.79974,15.12209 0.79332,2.38125 1.05035,4.57993 0.72639,6.21381 -0.27799,1.40207 -1.22053,3.0052 -2.11566,3.59844 -0.88788,0.58843 -2.28915,1.04884 -3.11394,1.02315 -0.82479,-0.0257 -4.37191,-1.04972 -7.882501,-2.2756 z M 190.86479,109.8847 c -0.34177,-2.02229 -1.38004,-3.84297 -3.33712,-5.85188 -1.56253,-1.60395 -2.84098,-3.28249 -2.84098,-3.7301 0,-0.447623 0.88004,-1.130436 1.95564,-1.517366 1.34174,-0.482682 2.72721,-0.462576 4.41362,0.06403 1.35189,0.422154 3.30097,1.715466 4.33129,2.874036 1.03031,1.15856 1.8733,2.88526 1.8733,3.83712 0,0.95185 -0.5027,2.65044 -1.11711,3.77464 -0.61441,1.1242 -1.75746,2.36826 -2.54011,2.76458 -0.78265,0.39632 -1.60736,0.72058 -1.8327,0.72058 -0.22534,0 -0.63296,-1.32105 -0.90583,-2.93566 z m 34.99509,-3.8294 c -0.2712,-0.25662 -0.49309,-1.22562 -0.49309,-2.15335 0,-0.94108 -0.98094,-2.61492 -2.21892,-3.78628 -1.2204,-1.154721 -2.21891,-2.705117 -2.21891,-3.445324 0,-1.065796 0.52685,-1.345834 2.53198,-1.345834 1.64488,0 3.3293,0.634783 4.80765,1.81179 1.66498,1.325596 2.27567,2.410624 2.27567,4.043288 0,1.22732 -0.51814,2.93141 -1.1514,3.78686 -0.63327,0.85547 -1.57631,1.55539 -2.09565,1.55539 -0.51932,0 -1.16613,-0.20995 -1.43733,-0.46656 z" /></g></svg>
