<?xml version="1.0" encoding="UTF-8" standalone="no"?>
<!-- Created with Inkscape (http://www.inkscape.org/) -->

<svg
   width="300mm"
   height="300mm"
   viewBox="0 0 300 300"
   version="1.1"
   id="svg5"
   inkscape:version="1.2 (dc2aedaf03, 2022-05-15)"
   sodipodi:docname="EmL_Path.svg"
   inkscape:export-filename="Arrow&amp;Ball.png"
   inkscape:export-xdpi="96"
   inkscape:export-ydpi="96"
   xml:space="preserve"
   xmlns:inkscape="http://www.inkscape.org/namespaces/inkscape"
   xmlns:sodipodi="http://sodipodi.sourceforge.net/DTD/sodipodi-0.dtd"
   xmlns="http://www.w3.org/2000/svg"
   xmlns:svg="http://www.w3.org/2000/svg"><sodipodi:namedview
     id="namedview7"
     pagecolor="#505050"
     bordercolor="#eeeeee"
     borderopacity="1"
     inkscape:showpageshadow="0"
     inkscape:pageopacity="0"
     inkscape:pagecheckerboard="0"
     inkscape:deskcolor="#505050"
     inkscape:document-units="mm"
     showgrid="false"
     inkscape:zoom="0.55244701"
     inkscape:cx="462.4878"
     inkscape:cy="570.19043"
     inkscape:window-width="1920"
     inkscape:window-height="1057"
     inkscape:window-x="-8"
     inkscape:window-y="-8"
     inkscape:window-maximized="1"
     inkscape:current-layer="layer1" /><defs
     id="defs2"><inkscape:path-effect
       effect="powerstroke"
       id="path-effect43730"
       is_visible="true"
       lpeversion="1"
       offset_points="0.48110846,30.755339 | 0.94585152,35.621346 | 1.5991816,29.703905"
       not_jump="false"
       sort_points="true"
       interpolator_type="CentripetalCatmullRom"
       interpolator_beta="0.2"
       start_linecap_type="zerowidth"
       linejoin_type="round"
       miter_limit="4"
       scale_width="1"
       end_linecap_type="zerowidth" /><inkscape:path-effect
       effect="powerstroke"
       id="path-effect263"
       is_visible="true"
       lpeversion="1"
       offset_points="0.15776431,21.216178 | 2.5032984,25.890506 | 4.8271858,14.68631"
       not_jump="false"
       sort_points="true"
       interpolator_type="CentripetalCatmullRom"
       interpolator_beta="0.2"
       start_linecap_type="zerowidth"
       linejoin_type="round"
       miter_limit="4"
       scale_width="1"
       end_linecap_type="zerowidth" /><clipPath
       clipPathUnits="userSpaceOnUse"
       id="clipPath39249"><rect
         style="opacity:0.446903;fill:none;fill-opacity:1;stroke:#000000;stroke-width:30;stroke-linecap:round;stroke-linejoin:round;stroke-dasharray:none;stroke-dashoffset:0"
         id="rect39251"
         width="117.3378"
         height="125.47961"
         x="-74.713051"
         y="68.965889" /></clipPath></defs><g
     inkscape:label="Layer 1"
     inkscape:groupmode="layer"
     id="layer1"><path
       id="path43728"
       style="fill:#000000;stroke-width:50;stroke-linecap:round;stroke-linejoin:bevel"
       d="m 75.698234,265.56353 c 1.411187,2.47888 4.664311,7.1072 10.845884,11.47945 5.958973,4.21479 14.105262,7.71141 21.772632,8.34639 0.56664,0.0469 1.13811,0.0846 1.71485,0.1134 13.07222,0.65399 28.72266,-3.57306 52.66019,-4.43102 2.6042,-0.0933 5.3583,-0.14364 8.25517,-0.14224 5.99807,0.0409 12.56401,0.84321 20.21424,2.06777 7.32861,1.17308 14.84114,2.60196 21.03272,3.04569 2.85546,0.20463 5.47643,0.20973 7.89028,-0.0715 6.44263,-0.75048 12.95828,-4.458 17.90599,-8.842 5.05001,-4.47464 8.00402,-9.17071 9.24339,-11.52398 1.21095,-2.29932 3.39803,-7.563 3.26258,-14.49585 -0.13403,-6.86041 -2.63248,-14.67283 -8.47816,-20.34864 -2.15624,-2.09359 -4.86454,-4.12731 -8.1008,-6.07751 -7.12382,-4.2929 -16.84855,-8.1917 -28.02464,-10.95734 -11.23029,-2.77905 -23.27642,-4.25854 -35.30699,-4.12892 -3.77174,0.0352 -7.36785,0.1397 -10.77972,0.29027 -30.66512,1.35325 -53.82777,6.56863 -68.329791,15.66439 -0.652703,0.40937 -1.28953,0.8275 -1.910162,1.25443 -8.659515,5.95691 -14.130327,14.87298 -15.805262,22.81258 -1.691279,8.01706 0.587117,13.57234 1.937599,15.94459 z M 169.95312,136.91797 c -2.77516,-0.0549 -5.63307,0.0873 -8.56835,0.45508 -41.30622,5.17574 -64.580082,41.8164 -64.580083,41.8164 a 8.8907003,8.8907003 0 0 0 2.56836,12.3086 8.8907003,8.8907003 0 0 0 12.308593,-2.57032 c 0,0 20.31895,-29.95318 51.91406,-33.91211 16.76104,-2.10018 29.594,5.84742 39.07813,15.08985 9.48412,9.24243 14.48828,18.99219 14.48828,18.99219 a 8.8907003,8.8907003 0 0 0 11.95703,3.89062 8.8907003,8.8907003 0 0 0 3.89063,-11.95703 c 0,0 -6.1729,-12.20678 -17.92579,-23.66016 -10.28377,-10.0217 -25.70472,-20.06888 -45.13086,-20.45312 z m -5.53515,-56.794923 c -4.31057,0.06571 -8.75068,0.398491 -13.31836,1.03125 C 80.803891,90.892319 48.595703,163.52734 48.595703,163.52734 a 11.8543,11.8543 0 0 0 5.820313,15.72071 11.8543,11.8543 0 0 0 15.722656,-5.82227 c 0,0 29.287686,-61.17835 84.212888,-68.78711 57.74871,-7.9999 89.93555,45.58203 89.93555,45.58203 a 11.8543,11.8543 0 0 0 16.27148,4.03907 11.8543,11.8543 0 0 0 4.03907,-16.26954 c 0,0 -35.5211,-58.852822 -100.17969,-57.867183 z M 157.53711,23.107422 C 109.86331,24.026622 71.202298,52.663072 44.476562,79.660156 17.750827,106.65724 2.0175781,133.54297 2.0175781,133.54297 a 14.8179,14.8179 0 0 0 5.2851563,20.27734 14.8179,14.8179 0 0 0 20.2773436,-5.2832 c 0,0 14.040487,-23.86797 37.957031,-48.02734 C 89.453654,76.350395 122.30536,53.426667 158.10937,52.736328 235.43474,51.245416 273.75195,101.9082 273.75195,101.9082 a 14.8179,14.8179 0 0 0 20.78125,2.68946 14.8179,14.8179 0 0 0 2.69141,-20.781254 c 0,0 -48.87917,-62.459861 -139.6875,-60.708984 z" /></g></svg>
