<?xml version="1.0" encoding="UTF-8" standalone="no"?>
<!-- Created with Inkscape (http://www.inkscape.org/) -->

<svg
   width="300mm"
   height="300mm"
   viewBox="0 0 300 300"
   version="1.1"
   id="svg5"
   inkscape:version="1.2 (dc2aedaf03, 2022-05-15)"
   sodipodi:docname="Ri.svg"
   inkscape:export-filename="Arrow&amp;Ball.png"
   inkscape:export-xdpi="96"
   inkscape:export-ydpi="96"
   xml:space="preserve"
   xmlns:inkscape="http://www.inkscape.org/namespaces/inkscape"
   xmlns:sodipodi="http://sodipodi.sourceforge.net/DTD/sodipodi-0.dtd"
   xmlns="http://www.w3.org/2000/svg"
   xmlns:svg="http://www.w3.org/2000/svg"><sodipodi:namedview
     id="namedview7"
     pagecolor="#505050"
     bordercolor="#eeeeee"
     borderopacity="1"
     inkscape:showpageshadow="0"
     inkscape:pageopacity="0"
     inkscape:pagecheckerboard="0"
     inkscape:deskcolor="#505050"
     inkscape:document-units="mm"
     showgrid="false"
     inkscape:zoom="0.70710678"
     inkscape:cx="323.1478"
     inkscape:cy="545.88643"
     inkscape:window-width="1920"
     inkscape:window-height="1057"
     inkscape:window-x="1912"
     inkscape:window-y="-8"
     inkscape:window-maximized="1"
     inkscape:current-layer="layer1" /><defs
     id="defs2"><inkscape:path-effect
       effect="powerstroke"
       id="path-effect45972"
       is_visible="true"
       lpeversion="1"
       offset_points="0.24857645,52.824556 | 1.0559493,45.235261 | 1.7784934,28.433604"
       not_jump="false"
       sort_points="true"
       interpolator_type="CentripetalCatmullRom"
       interpolator_beta="0.2"
       start_linecap_type="zerowidth"
       linejoin_type="round"
       miter_limit="4"
       scale_width="1"
       end_linecap_type="zerowidth" /><inkscape:path-effect
       effect="powerstroke"
       id="path-effect43730"
       is_visible="true"
       lpeversion="1"
       offset_points="0.48110846,30.755339 | 0.94585152,35.621346 | 1.5991816,29.703905"
       not_jump="false"
       sort_points="true"
       interpolator_type="CentripetalCatmullRom"
       interpolator_beta="0.2"
       start_linecap_type="zerowidth"
       linejoin_type="round"
       miter_limit="4"
       scale_width="1"
       end_linecap_type="zerowidth" /><inkscape:path-effect
       effect="powerstroke"
       id="path-effect263"
       is_visible="true"
       lpeversion="1"
       offset_points="0.15776431,21.216178 | 2.5032984,25.890506 | 4.8271858,14.68631"
       not_jump="false"
       sort_points="true"
       interpolator_type="CentripetalCatmullRom"
       interpolator_beta="0.2"
       start_linecap_type="zerowidth"
       linejoin_type="round"
       miter_limit="4"
       scale_width="1"
       end_linecap_type="zerowidth" /><clipPath
       clipPathUnits="userSpaceOnUse"
       id="clipPath39249"><rect
         style="opacity:0.446903;fill:none;fill-opacity:1;stroke:#000000;stroke-width:30;stroke-linecap:round;stroke-linejoin:round;stroke-dasharray:none;stroke-dashoffset:0"
         id="rect39251"
         width="117.3378"
         height="125.47961"
         x="-74.713051"
         y="68.965889" /></clipPath></defs><g
     inkscape:label="Layer 1"
     inkscape:groupmode="layer"
     id="layer1"><path
       style="fill:none;stroke:#000000;stroke-width:15;stroke-linecap:round;stroke-linejoin:bevel;stroke-dasharray:none;stroke-dashoffset:32;stroke-opacity:1"
       d="m 37.835453,285.92108 c 24.211056,7.04681 75.107207,-11.71052 92.055377,-27.0304 26.16716,-25.26092 42.07864,-35.81317 66.6844,-62.90158 20.06059,-22.08466 47.42497,-41.67662 69.43201,-73.99448 28.47139,-51.447168 37.94227,-94.021928 8.01673,-106.154233 -40.72726,-17.6594041 -60.48756,8.891112 -90.46742,34.137867 -28.90542,24.341943 -64.08887,50.505126 -95.024752,72.054576 -24.167372,19.04835 -62.111675,24.84546 -72.950673,51.13471 -8.7662711,21.26199 -9.3355135,46.09271 -5.7327744,67.46752 3.1797474,18.86522 11.4426974,40.64209 27.9871024,45.28602 z"
       id="path14221"
       sodipodi:nodetypes="sssccsssss" /><path
       style="opacity:1;fill:none;fill-opacity:1;stroke:#976c00;stroke-width:40;stroke-linecap:round;stroke-linejoin:bevel;stroke-dasharray:none;stroke-dashoffset:0;stroke-opacity:1"
       d="m 58.51133,133.22438 c 0,0 4.176439,27.28297 40.764626,60.18853 30.334724,27.2815 68.238694,33.24934 68.238694,33.24934"
       id="path46029"
       sodipodi:nodetypes="csc" /><path
       style="fill:none;fill-opacity:1;stroke:#976c00;stroke-width:35;stroke-linecap:round;stroke-linejoin:bevel;stroke-dasharray:none;stroke-dashoffset:0;stroke-opacity:1"
       d="m 156.59224,63.332328 c 0,0 4.93698,27.329268 29.51333,50.284542 29.12145,27.20057 66.16337,29.24411 66.16337,29.24411"
       id="path46029-1"
       sodipodi:nodetypes="csc" /></g></svg>
